<?xml version="1.0" encoding="UTF-8" standalone="no"?>
<svg
   xmlns:dc="http://purl.org/dc/elements/1.1/"
   xmlns:cc="http://creativecommons.org/ns#"
   xmlns:rdf="http://www.w3.org/1999/02/22-rdf-syntax-ns#"
   xmlns:svg="http://www.w3.org/2000/svg"
   xmlns="http://www.w3.org/2000/svg"
   xmlns:sodipodi="http://sodipodi.sourceforge.net/DTD/sodipodi-0.dtd"
   xmlns:inkscape="http://www.inkscape.org/namespaces/inkscape"
   width="36cm"
   height="5cm"
   viewBox="97 33 705 90"
   id="svg2"
   version="1.1"
   inkscape:version="0.48.4 r9939"
   sodipodi:docname="addr_cachel2.svg">
  <metadata
     id="metadata56">
    <rdf:RDF>
      <cc:Work
         rdf:about="">
        <dc:format>image/svg+xml</dc:format>
        <dc:type
           rdf:resource="http://purl.org/dc/dcmitype/StillImage" />
      </cc:Work>
    </rdf:RDF>
  </metadata>
  <defs
     id="defs54" />
  <sodipodi:namedview
     pagecolor="#ffffff"
     bordercolor="#666666"
     borderopacity="1"
     objecttolerance="10"
     gridtolerance="10"
     guidetolerance="10"
     inkscape:pageopacity="0"
     inkscape:pageshadow="2"
     inkscape:window-width="1920"
     inkscape:window-height="1041"
     id="namedview52"
     showgrid="false"
     inkscape:zoom="0.62559258"
     inkscape:cx="441.57878"
     inkscape:cy="223.69212"
     inkscape:window-x="0"
     inkscape:window-y="0"
     inkscape:window-maximized="1"
     inkscape:current-layer="svg2" />
  <rect
     id="rect6"
     height="60"
     width="200"
     y="60"
     x="420"
     style="fill:#397f04;stroke:#000000;stroke-width:2.22511050999999993;stroke-miterlimit:4;stroke-dasharray:none;fill-opacity:0.5411765" />
  <text
     id="text8"
     y="99.890045"
     x="519.29401"
     style="font-size:28.22220039px;font-style:normal;font-weight:normal;text-anchor:middle;fill:#000000;font-family:sans-serif"
     font-size="28.2222">
    <tspan
       id="tspan10"
       y="99.890045"
       x="519.29401"
       style="font-size:26.5288887px">set number</tspan>
  </text>
  <rect
     id="rect14"
     height="60"
     width="180"
     y="60"
     x="620"
     style="fill:#96c0cc;stroke:#000000;stroke-width:2.22511052999999981;stroke-miterlimit:4;stroke-dasharray:none;fill-opacity:1" />
  <text
     id="text16"
     y="99.890045"
     x="709.72797"
     style="font-size:28.22220039px;font-style:normal;font-weight:normal;text-anchor:middle;fill:#000000;stroke-width:2.22511053;stroke-miterlimit:4;stroke-dasharray:none;font-family:serif"
     font-size="28.2222">
    <tspan
       style="font-size:26.5288887px;stroke-width:2.22511053;stroke-miterlimit:4;stroke-dasharray:none"
       id="tspan18"
       y="99.890045"
       x="709.72797">line offset</tspan>
  </text>
  <text
     font-size="22.5778"
     style="font-size:22.57780075px;font-style:normal;font-weight:normal;text-anchor:start;fill:#000000;font-family:sans-serif"
     x="789.77496"
     y="56.926456"
     id="text20">
    <tspan
       x="789.77496"
       y="56.926456"
       id="tspan22"
       style="font-size:19.89666557px">0</tspan>
  </text>
  <text
     font-size="22.5778"
     style="font-size:22.57780075px;font-style:normal;font-weight:normal;text-anchor:start;fill:#000000;font-family:sans-serif"
     x="620.56439"
     y="56.926456"
     id="text24">
    <tspan
       x="620.56439"
       y="56.926456"
       id="tspan26"
       style="font-size:19.89666557px">5</tspan>
  </text>
  <text
     font-size="22.5778"
     style="font-size:22.57780075px;font-style:normal;font-weight:normal;text-anchor:start;fill:#000000;font-family:sans-serif"
     x="606.69946"
     y="56.926456"
     id="text28">
    <tspan
       x="606.69946"
       y="56.926456"
       id="tspan30"
       style="font-size:19.89666557px">6</tspan>
  </text>
  <text
     font-size="22.5778"
     style="font-size:22.57780075px;font-style:normal;font-weight:normal;text-anchor:start;fill:#000000;font-family:sans-serif"
     x="420.10791"
     y="57.208195"
     id="text32">
    <tspan
       x="420.10791"
       y="57.208195"
       id="tspan34"
       style="font-size:19.89666557px">14</tspan>
  </text>
  <rect
     id="rect38"
     height="60"
     width="320"
     y="60"
     x="100"
     style="fill:#f87d27;stroke:#000000;stroke-width:2.22511050999999993;stroke-miterlimit:4;stroke-dasharray:none;fill-opacity:1" />
  <text
     id="text40"
     y="96.554504"
     x="260.84845"
     style="font-size:28.22220039px;font-style:normal;font-weight:normal;text-anchor:middle;fill:#000000;font-family:sans-serif"
     font-size="28.2222">
    <tspan
       id="tspan42"
       y="96.554504"
       x="260.84845"
       style="font-size:26.5288887px">tag</tspan>
  </text>
  <text
     font-size="22.5778"
     style="font-size:22.57780075px;font-style:normal;font-weight:normal;text-anchor:start;fill:#000000;font-family:sans-serif"
     x="97.498177"
     y="56.926456"
     id="text44">
    <tspan
       x="97.498177"
       y="56.926456"
       id="tspan46"
       style="font-size:19.89666557px">63</tspan>
  </text>
  <text
     font-size="22.5778"
     style="font-size:22.57780075px;font-style:normal;font-weight:normal;text-anchor:start;fill:#000000;font-family:sans-serif"
     x="394.7117"
     y="56.926456"
     id="text48">
    <tspan
       x="394.7117"
       y="56.926456"
       id="tspan50"
       style="font-size:19.89666557px">15</tspan>
  </text>
  <text
     xml:space="preserve"
     style="font-size:79.58666229px;font-style:normal;font-weight:normal;line-height:125%;letter-spacing:0px;word-spacing:0px;fill:#000000;fill-opacity:1;stroke:none;font-family:Sans"
     x="52.827068"
     y="99.844704"
     id="text3810"
     sodipodi:linespacing="125%"><tspan
       sodipodi:role="line"
       id="tspan3812"
       x="52.827068"
       y="99.844704"
       style="font-size:26.5288887px">L2</tspan></text>
</svg>
